{
    "metadata": {
      "name": "cp_app3",
      "displayName": "Refer Friend",
      "tags": []
    },
    "desiredState": {
      "ingress": {
        "gatewayRefs": [
          {
            "ref": "/services/environments/env_prod/gateways/{{ gw_name }}"
          }
        ],
        "uris": {
          "http://www.arcadia-finance.io/app3/": {}
        }
      },
      "backend": {
        "ntlmAuthentication": "DISABLED",
        "preserveHostHeader": "DISABLED",
        "workloadGroups": {
          "wl_app3": {
            "loadBalancingMethod": {
              "type": "ROUND_ROBIN"
            },
            "uris": {
              "http://app3.nginx-udf.internal:31662": {
                "isBackup": false,
                "isDown": false,
                "isDrain": false,
                "resolve": "DISABLED"
              }
            }
          }
        }
      },
      "logging": {
        "errorLog": "DISABLED",
        "accessLog": {
          "state": "DISABLED"
        }
      }
    }
  }
  