{
    "class": "AS3",
    "action": "deploy",
    "persist": true,
    "declaration": {
        "class": "ADC",
        "schemaVersion": "3.2.0",
        "id": "Production",
        "Production": {
            "class": "Tenant",
            "defaultRouteDomain": 0,
            "arcadia": {
                "class": "Application",
                "template": "generic",
                "VS_WebApp": {
                    "class": "Service_HTTPS",
                    "remark": "Accepts HTTPS/TLS connections on port 443",
                    "virtualAddresses": ["10.1.10.16"],
                    "redirect80": false,
                    "pool": "pool_NGINX_WebApp",
                    "profileTCP": {
			            "egress": "wan",
            			"ingress": { "use": "TCP_Profile" } },
                    "profileHTTP": { "use": "custom_http_profile" },
                    "serverTLS": { "bigip": "/Common/arcadia_client_ssl" }
                },
                "pool_NGINX_WebApp": {
                    "class": "Pool",
                    "monitors": ["http"],
                    "members": [{
                        "servicePort": 8080,
                        "serverAddresses": ["10.1.20.10"]
                    }]
                },
                "custom_http_profile": {
                    "class": "HTTP_Profile",
                    "xForwardedFor": true
                },
                "TCP_Profile": {
        			"class": "TCP_Profile",
        			"idleTimeout": 60 }
            }
        }
    }
}
